DATA 607 Final Project
…
Age

Total paid to a car vs age separated with genders. Car purchase
amount increases when age increases.

## # A tibble: 76 x 6
## # Groups:   age [43]
##      age gender annual_Salary credit_card_debt net_worth car_purchase_amount
##    <int> <chr>          <dbl>            <dbl>     <dbl>               <dbl>
##  1    20 M             70467.             100    494607.              28645.
##  2    22 M             43132.           10917.   326743.              10092.
##  3    25 F             45093.           11380.   158758.               9000 
##  4    27 F             55370.           10889.   606851.              29671.
##  5    28 F             82843.           13102.   315775.              37162.
##  6    29 M             62303.            8562.   444786.              30088.
##  7    30 M             66763.            6484.   426726.              33134.
##  8    31 F             41362.           10756.   615720.              25253.
##  9    32 F             68672.            9266.   453192.              36479.
## 10    32 M             44926.           12158.   572525.              26529.
## # ... with 66 more rows
…
I can predict at the age of 71 the
car_purchase_amount will be $65364.19.

predict(model1, newdata = p)

##        1 
## 65364.19

Country

## # A tibble: 211 x 3
##    country        avg_annual_Salary avg_car_purchase_amount
##    <chr>                      <dbl>                   <dbl>
##  1 ?land Islands             72971.                  51013.
##  2 Afghanistan               75937.                  56018.
##  3 Algeria                   66513.                  47752.
##  4 American Samoa            38454.                  24222 
##  5 Andorra                   59894.                  39240.
##  6 Angola                    62074.                  44498 
##  7 Anguilla                  70350.                  48189.
##  8 Antarctica                66551.                  47059.
##  9 Argentina                 68326.                  48664.
## 10 Armenia                   67465.                  45037.
## # ... with 201 more rows
…
Salary

Comparatively, women bought more expensive cars than men. Probably
because the more expensive the car, the safer it is. Also, as seen here,
the higher the annual salary, the higher the car purchase price.

## # A tibble: 500 x 7
## # Groups:   gender [2]
##    gender annual_Salary country   age credit_card_debt net_worth car_purchase_~1
##    <chr>          <dbl>   <dbl> <dbl>            <dbl>     <dbl>           <dbl>
##  1 F             32698.      NA    55           10858.   218809.          28464.
##  2 F             33423       NA    35            8571.   211169.          12537.
##  3 F             34155.      NA    51            5316.   216355.          26499.
##  4 F             37336.      NA    44           10218.   430907.          28700.
##  5 F             38214.      NA    52           11493.   579059.          39893.
##  6 F             38284.      NA    42           15468.   587011.          31697 
##  7 F             38454.      NA    42           15283.   320834.          24222 
##  8 F             38779.      NA    61           12759.   581498.          47936.
##  9 F             39488.      NA    56           10992.   363561.          37714.
## 10 F             40388.      NA    62            5761.   622570.          50540.
## # ... with 490 more rows, and abbreviated variable name 1: car_purchase_amount
…
I can predict at with 65,000 annual Salary the
car_purchase_amount will be $45843.69.

predict(model2, newdata = s)

##        1 
## 45843.69

Net Worth

## # A tibble: 76 x 7
## # Groups:   age [43]
##      age gender country annual_Salary credit_card_debt net_worth car_purchase_~1
##    <int> <chr>    <dbl>         <dbl>            <dbl>     <dbl>           <dbl>
##  1    20 M           NA        70467.             100    494607.          28645.
##  2    22 M           NA        43132.           10917.   326743.          10092.
##  3    25 F           NA        45093.           11380.   158758.           9000 
##  4    27 F           NA        55370.           10889.   606851.          29671.
##  5    28 F           NA        82843.           13102.   315775.          37162.
##  6    29 M           NA        62303.            8562.   444786.          30088.
##  7    30 M           NA        66763.            6484.   426726.          33134.
##  8    31 F           NA        41362.           10756.   615720.          25253.
##  9    32 F           NA        68672.            9266.   453192.          36479.
## 10    32 M           NA        44926.           12158.   572525.          26529.
## # ... with 66 more rows, and abbreviated variable name 1: car_purchase_amount
…
